CaseStudy2
…
yes.attrition %>% group_by(TotalWorkingYears) %>%
  summarise(
    count = n(),
    mean = mean(MonthlyIncome, na.rm = TRUE),
    sd = sd(MonthlyIncome, na.rm = TRUE),
    median = median(MonthlyIncome, na.rm = TRUE),
    IQR = IQR(MonthlyIncome, na.rm = TRUE)
  )

## # A tibble: 30 x 6
##    TotalWorkingYears count  mean    sd median   IQR
##                <int> <int> <dbl> <dbl>  <dbl> <dbl>
##  1                 0     5 1689.  205.  1675   309 
##  2                 1    20 2083.  637.  2330.  933.
##  3                 2     7 2689   433.  2742   392.
##  4                 3     7 2426.  224.  2351   250 
##  5                 4     7 3538   988.  3730  1489 
##  6                 5    11 3367.  868.  3464  1266.
##  7                 6    13 3997. 2547.  2546  2414 
##  8                 7     9 3438. 1386.  2759  2831 
##  9                 8     8 3969. 1794.  3032. 3406.
## 10                 9     5 6549. 2082.  6074  2249 
## # … with 20 more rows
…
